Project 1
…
## # A tibble: 2 x 3
##   ulcer tumor_thickness month_live
##   <chr>           <dbl>      <dbl>
## 1 No               2.86       74.6
## 2 yes              3.27       68.0

# 8.relationship between age and month lives after operation
project_joindata1 %>% group_by(age) %>% summarize(month_live = mean(months_live)) %>% 
    arrange(desc(month_live))

## # A tibble: 70 x 2
##      age month_live
##    <dbl>      <dbl>
##  1    22      140. 
##  2    30      137. 
##  3    12      126. 
##  4    21      126. 
##  5    29      122. 
##  6    50      119. 
##  7     4      113. 
##  8    42      101. 
##  9    26       99.1
## 10    47       94.0
## # … with 60 more rows
…
